127.0.0.1 - - [24/Apr/2019:00:09:42 +0200] "GET /cacheServlet/example1 HTTP/1.1" 404 1099
0:0:0:0:0:0:0:1 - - [24/Apr/2019:16:45:44 +0200] "GET / HTTP/1.1" 200 11452
0:0:0:0:0:0:0:1 - - [24/Apr/2019:16:45:44 +0200] "GET /tomcat.css HTTP/1.1" 200 5931
0:0:0:0:0:0:0:1 - - [24/Apr/2019:16:45:44 +0200] "GET /tomcat.png HTTP/1.1" 200 5103
0:0:0:0:0:0:0:1 - - [24/Apr/2019:16:45:45 +0200] "GET /bg-nav.png HTTP/1.1" 200 1401
0:0:0:0:0:0:0:1 - - [24/Apr/2019:16:45:45 +0200] "GET /bg-upper.png HTTP/1.1" 200 3103
0:0:0:0:0:0:0:1 - - [24/Apr/2019:16:45:45 +0200] "GET /bg-button.png HTTP/1.1" 200 713
0:0:0:0:0:0:0:1 - - [24/Apr/2019:16:45:45 +0200] "GET /bg-middle.png HTTP/1.1" 200 1918
0:0:0:0:0:0:0:1 - - [24/Apr/2019:16:45:45 +0200] "GET /asf-logo-wide.svg HTTP/1.1" 200 27530
0:0:0:0:0:0:0:1 - - [24/Apr/2019:18:26:42 +0200] "GET / HTTP/1.1" 200 11452
0:0:0:0:0:0:0:1 - - [24/Apr/2019:18:26:44 +0200] "GET /bg-nav.png HTTP/1.1" 200 1401
