-------------------------------------------------------------------------------
Test set: cz.B6B36NSS.callingApp.AppTest
-------------------------------------------------------------------------------
Tests run: 1, Failures: 0, Errors: 0, Skipped: 0, Time elapsed: 0.086 sec
